,attack,sharing_precentage,num_iocs
0,48,0,2
1,243,0,3
2,1999881,0.333333333333333,3
3,303,0,3
4,145,0.166666666666667,6
5,175,0.142857142857143,7
6,1999880,1,10
7,305,0,10
8,126,0.083333333333333,12
9,1999902,0.142857142857143,14
10,197,0.375,16
11,106,0.5625,16
12,226,0.647058823529412,17
13,17,0.7,20
14,138,0.55,20
15,170,0.55,20
16,132,0.190476190476191,21
17,216,1,22
18,183,0,22
19,79,1,24
20,229,0.208333333333333,24
21,236,0.111111111111111,27
22,134,0.9375,32
23,156,0.787878787878788,33
24,93,0.228571428571429,35
25,105,0.9,40
26,1999907,0.25,48
27,49,0.62962962962963,54
28,137,0.614035087719298,57
29,1999904,1,58
30,77,0.448275862068966,58
31,127,1,58
32,33,1,58
33,186,1,58
34,1999900,1,58
35,201,1,58
36,104,1,58
37,192,0.111111111111111,63
38,123,0.776119402985075,67
39,111,0.434782608695652,69
40,227,0.450704225352113,71
41,15,0.944444444444444,72
42,96,0.263157894736842,76
43,176,0.4125,80
44,1999901,0.275862068965517,87
45,163,0.977272727272727,88
46,120,0.391304347826087,92
47,129,0.070707070707071,99
48,1999878,0.813725490196078,102
49,99,0.628571428571429,105
50,174,0.622641509433962,106
51,56,0.972727272727273,110
52,119,0.931623931623932,117
53,1999895,1,118
54,1999889,0.92436974789916,119
55,1999888,0.444444444444444,126
56,261,1,128
57,237,0.473282442748092,131
58,16,0.917293233082707,133
59,11,0.985714285714286,140
60,128,0.421768707482993,147
61,185,1,173
62,63,0.738636363636364,176
63,55,0.977401129943503,177
64,86,0.112994350282486,177
65,274,0.329608938547486,179
66,217,0.352331606217617,193
67,125,0.663212435233161,193
68,219,1,207
69,238,0.700934579439252,214
70,72,0.48068669527897,233
71,13,0.446808510638298,235
72,158,0.434042553191489,235
73,109,1,265
74,144,1,265
75,112,1,271
76,157,0.405693950177936,281
77,26,0.442906574394464,289
78,222,0.958762886597938,291
79,1,0.345762711864407,295
80,115,0.963934426229508,305
81,242,0.911764705882353,306
82,199,0.389240506329114,316
83,220,0.553516819571865,327
84,164,0.797014925373134,335
85,110,0.313782991202346,341
86,141,0.954022988505747,348
87,218,0.898876404494382,356
88,1999903,1,362
89,215,1,362
90,1999906,1,362
91,214,0.321052631578947,380
92,40,0.540682414698163,381
93,191,0.554123711340206,388
94,21,0.403061224489796,392
95,121,0.09873417721519,395
96,52,1,402
97,101,0.685230024213075,413
98,162,1,414
99,190,0.916067146282974,417
100,81,0.931034482758621,464
101,136,0.025751072961373,466
102,233,1,471
103,258,0.148305084745763,472
104,37,0.659043659043659,481
105,1999892,1,490
106,98,1,490
107,180,0.490835030549898,491
108,28,0.981963927855711,499
109,1999884,0.122330097087379,515
110,25,0.688212927756654,526
111,113,0.416666666666667,528
112,135,0.985559566787004,554
113,58,0.285971223021583,556
114,178,0.4125,560
115,5,0.343103448275862,580
116,1999899,0.666666666666667,585
117,66,1,616
118,124,1,623
119,264,0.330696202531646,632
120,223,0.384858044164038,634
121,148,0.487068965517241,696
122,203,1,798
123,166,0.87920298879203,803
124,10,0.943069306930693,808
125,73,0.395377128953771,822
126,31,0.214953271028037,856
127,151,0.232828870779977,859
128,208,0.967963386727689,874
129,60,0.993576017130621,934
130,240,0.872708757637474,982
131,260,0.511534603811434,997
132,143,0.659244917715392,1033
133,181,0.320379146919431,1055
134,224,1,1055
135,168,1,1055
136,172,1,1093
137,1999877,0.618018018018018,1110
138,117,0.913453299057412,1167
139,1999896,0.183898305084746,1180
140,211,0.685833333333333,1200
141,57,0.281481481481481,1350
142,91,0.994269340974212,1396
143,169,0.165,1400
144,1999898,0.717213114754098,1464
145,230,0.969251336898396,1496
146,41,0.09254327563249,1502
147,12,0.885072655217966,1514
148,3,0.906066536203522,1533
149,1999882,0.834513844172569,1553
150,34,0.943954659949622,1588
151,160,1,1605
152,83,1,1605
153,200,1,1605
154,202,1,1605
155,107,0.78895096213532,1611
156,130,0.384014423076923,1664
157,122,0.150660264105642,1666
158,1999885,0.882915173237754,1674
159,1999890,0.967116852613036,1703
160,146,0.659487776484284,1718
161,54,1,1781
162,1999897,0.950056116722783,1782
163,131,0.381535038932147,1798
164,133,0.921832884097035,1855
165,142,0.909480449919657,1867
166,19,0.800815078960774,1963
167,24,0.908864541832669,2008
168,1999887,0.144340088976767,2023
169,100,1,2029
170,1999879,0.880195599022005,2045
171,6,0.777563793933558,2077
172,23,0.094661283086586,2229
173,209,0.741707209199469,2261
174,165,0.338631346578366,2265
175,65,0.903863037752414,2278
176,59,0.14095401804899,2327
177,189,0.188823031329382,2362
178,32,1,2467
179,43,0.453306613226453,2495
180,171,0.88946117274168,2524
181,195,0.439234075810864,2559
182,82,1,2614
183,71,0.017563955708286,2619
184,118,0.662095238095238,2625
185,252,0.927157265595816,2677
186,69,0.618195376584638,2682
187,29,0.944649446494465,2981
188,161,0.43462359036879,3281
189,263,0.256266588027131,3391
190,152,1,3427
191,153,1,3427
192,251,0.894373965802537,3626
193,45,0.869462025316456,3792
194,253,0.963469119579501,3805
195,42,0.944114737883284,4044
196,53,0.084215710416154,4061
197,90,0.734578520521013,4069
198,68,0.87720156555773,4088
199,87,0.989504515499146,4097
200,89,0.980150084725248,4131
201,78,0.92835889219501,4369
202,1999908,0.465893587994543,4398
203,74,0.615453327378294,4478
204,259,0.515441013108198,4501
205,177,0.496168162907817,4567
206,36,0.000436490615452,4582
207,232,0.99959266802444,4910
208,1999886,1,4923
209,262,0.472831953940266,5558
210,255,0.308025654359508,5769
211,39,0.56074455708825,6017
212,38,0.592515592515592,6253
213,254,0.966517857142857,6272
214,206,0.434086629001883,6372
215,1999894,0.749376169681846,6412
216,1999875,1,6522
217,97,1,6522
218,179,0.996042015527478,6569
219,64,0.621653084982538,6872
220,207,0.987403378184941,6986
221,76,0.364528516569478,7031
222,46,0.99986136143075,7213
223,27,0.388812534359538,7276
224,14,0.013053797468355,7584
225,1999909,0.626378955024852,8249
226,30,0.817138759411976,8367
227,1999883,0.693348239239799,8945
228,1999891,0.486678507992895,9008
229,275,0.679631415407693,9333
230,210,0.472513368983957,9350
231,150,0.822680621888019,9841
232,50,0.872400565313951,9906
233,9,0.341107871720117,10290
234,8,0.357561547479484,12795
235,194,0.871511714669452,13402
236,1999876,0.668637803590285,14205
237,239,0.359287566534734,14654
238,154,1,15516
239,116,0.994541484716157,15572
240,204,0.973643314477528,16087
241,62,0.962020715973106,16509
242,85,0.809804974056182,16767
243,225,0.768167013722035,18729
244,61,0.328308207705193,19104
245,1999905,0.205815972222222,23040
246,70,0.594642795898069,29157
247,4,0.809983756816336,34476
248,51,0.238135709389993,36475
249,67,0.185959671396565,41509
250,75,0.646003072768751,42958
